{
  "project_info": {
    "project_number": "526858913563",
    "project_id": "keep-details-fc63f",
    "storage_bucket": "keep-details-fc63f.appspot.com"
  },
  "client": [
    {
      "client_info": {
        "mobilesdk_app_id": "1:526858913563:android:b0d88ec60c593ca269b5be",
        "android_client_info": {
          "package_name": "com.keepdetails"
        }
      },
      "oauth_client": [
        {
          "client_id": "526858913563-e6e743iutr8cmjpca2rj546pkalu0hqq.apps.googleusercontent.com",
          "client_type": 1,
          "android_info": {
            "package_name": "com.keepdetails",
            "certificate_hash": "5e8f16062ea3cd2c4a0d547876baa6f38cabf625"
          }
        },
        {
          "client_id": "526858913563-hblvigjinn6hm0jomvjs9vo76svn7q1s.apps.googleusercontent.com",
          "client_type": 3
        }
      ],
      "api_key": [
        {
          "current_key": "AIzaSyB2HdItXcBS-qVpPuYaBBb6a3GrJlPjJ6Y"
        }
      ],
      "services": {
        "appinvite_service": {
          "other_platform_oauth_client": [
            {
              "client_id": "526858913563-hblvigjinn6hm0jomvjs9vo76svn7q1s.apps.googleusercontent.com",
              "client_type": 3
            },
            {
              "client_id": "526858913563-bu8l053malmiedaic7a6ogrnogmlhve3.apps.googleusercontent.com",
              "client_type": 2,
              "ios_info": {
                "bundle_id": "com.app.keepdetails"
              }
            }
          ]
        }
      },
      "admob_app_id": "ca-app-pub-5778749624122416~9182810786"
    }
  ],
  "configuration_version": "1"
}